{
  "index": "/index.html",
  "navigationUrls": [
    "/**",
    "!/**/*.*",
    "!/**/*__*",
    "!/**/*__*/**",
    "!/oauth2redirect",
    "!/.well-known/*"
  ],
  "assetGroups": [
    {
      "name": "app",
      "installMode": "prefetch",
      "resources": {
        "files": [
          "/**",
          "!/theme-*.js",
          "!/pwa-icons/**",
          "!/*.woff",
          "!/.well-known/**",
          "!/ngsw-worker.js",
          "!/safety-worker.js",
          "!/worker-basic.min.js"
        ]
      }
    },
    {
      "name": "themes",
      "installMode": "lazy",
      "resources": {
        "files": [
          "/theme-*.js",
          "/pwa-icons/**"
        ]
      }
    },
    {
      "name": "woffs",
      "installMode": "lazy",
      "resources": {
        "files": [
          "/*.woff"
        ]
      }
    }
  ]
}
