{
  "extends": "../../../tslint.json",
  "rules": {
    "directive-selector": [
      true,
      "attribute",
      "device",
      "camelCase"
    ],
    "component-selector": [
      true,
      "element",
      "access-point",
      "kebab-case"
    ]
  }
}
