<svg width="18px" height="19px" viewBox="0 0 18 19" version="1.1" xmlns="http://www.w3.org/2000/svg" xmlns:xlink="http://www.w3.org/1999/xlink">
  <title>Stroke 5 Copy 2</title>
  <g id="Symbols" stroke="none" stroke-width="1" fill="none" fill-rule="evenodd">
    <g id="Icon-/-add-/-users" transform="translate(-3.000000, -2.000000)" stroke="#45515D" stroke-width="2">
      <path d="M10.9936034,15 C8.48045487,15 7,16.2279618 7,18.5670971 L7,20 L15,20 L15,18.5670971 C15,16.2279618 13.506752,15 10.9936034,15 Z M15.9936034,12 C18.506752,12 20,13.2279618 20,15.5670971 L20,15.5670971 L20,17 L15,17 L14.0434134,12.3203422 C14.595061,12.1077932 15.2490061,12 15.9936034,12 Z M11.4964235,9 C13.066921,9 14,9.86044219 14,11.4996479 C14,13.1395578 13.066921,14 11.4964235,14 C9.92592593,14 9,13.1395578 9,11.4996479 C9,9.86044219 9.92592593,9 11.4964235,9 Z M16.4964235,6 C18.066921,6 19,6.86044219 19,8.49964794 C19,10.1395578 18.066921,11 16.4964235,11 C14.9259259,11 14,10.1395578 14,8.49964794 C14,6.86044219 14.9259259,6 16.4964235,6 Z M8,3 L7.97989899,5 L10,5.02010101 L10,7 L7.97989899,6.97989899 L8,9 L6.02010101,9 L6,6.97989899 L4,7 L4,5.02010101 L6,5 L6.02010101,3 L8,3 Z" id="Stroke-5-Copy-2"></path>
    </g>
  </g>
</svg>
