<svg width="16px" height="20px" viewBox="0 0 16 20" version="1.1" xmlns="http://www.w3.org/2000/svg" xmlns:xlink="http://www.w3.org/1999/xlink">
  <title>Stroke 1</title>
  <g id="Symbols" stroke="none" stroke-width="1" fill="none" fill-rule="evenodd">
    <g id="Icon-/-Lock-/-blue" transform="translate(-4.000000, -2.000000)" stroke="#0088CE" stroke-width="2">
      <path d="M11,14.986 L11,14.961 C11,15.505 11.437,15.947 11.977,15.947 C12.516,15.947 12.953,15.505 12.953,14.961 L12.953,14.986 C12.953,14.442 12.516,14 11.977,14 C11.437,14 11,14.442 11,14.986 Z M18,21 L6,21 C5.461,21 5,20.544 5,20 L5,10 C5,9.456 5.461,9 6,9 L18,9 C18.539,9 19,9.456 19,10 L19,20 C19,20.544 18.539,21 18,21 Z M8,9 L8,8 C8,4.924 9,3 12,3 C15,3 16,4.924 16,8 L16,9 L8,9 Z" id="Stroke-1"></path>
    </g>
  </g>
</svg>
