<?xml version="1.0" encoding="UTF-8"?><svg width="24px" height="40px" viewBox="0 0 24 40" version="1.1" xmlns="http://www.w3.org/2000/svg" xmlns:xlink="http://www.w3.org/1999/xlink">
  <title>698994</title>
  <g id="Symbols" stroke="none" stroke-width="1" fill="none" fill-rule="evenodd">
    <g id="Locks-/-home" transform="translate(-18.000000, -10.000000)" fill="#FFFFFF" fill-rule="nonzero">
      <g id="698994" transform="translate(18.000000, 10.000000)">
        <path d="M12,0 C5.38335937,0 0,5.38335937 0,12 L0,39.3333594 C0,39.7020312 0.298671875,40 0.666640625,40 L23.3332812,40 C23.70125,40 23.9999219,39.7020312 23.9999219,39.3333594 L23.9999219,12 C23.9999219,5.38335937 18.6166406,0 12,0 Z M22.6666406,38.6666406 L1.33335937,38.6666406 L1.33335937,12 C1.33335937,6.11867187 6.11804687,1.33335938 12,1.33335938 C17.8819531,1.33335938 22.6666406,6.11867188 22.6666406,12 L22.6666406,38.6666406 Z" id="Shape"></path>
        <path d="M20.6666406,11.3333594 L3.33335938,11.3333594 C2.96539063,11.3333594 2.66671875,11.6313281 2.66671875,12 L2.66671875,39.3333594 C2.66671875,39.7020313 2.96539063,40 3.33335938,40 L20.6667188,40 C21.0346875,40 21.3333594,39.7020313 21.3333594,39.3333594 L21.3333594,12 C21.3333594,11.6313281 21.0346875,11.3333594 20.6666406,11.3333594 Z M20,38.6666406 L4,38.6666406 L4,12.6666406 L20,12.6666406 L20,38.6666406 Z" id="Shape"></path>
        <path d="M8.33335937,14 C6.679375,14 5.33335937,15.3460156 5.33335937,17 L5.33335937,28 C5.33335937,28.3686719 5.63203125,28.6666406 6,28.6666406 L10.6666406,28.6666406 C11.0346094,28.6666406 11.3332812,28.3686719 11.3332812,28 L11.3332812,17 C11.3333594,15.3460156 9.98734375,14 8.33335937,14 Z M10,27.3333594 L6.66664062,27.3333594 L6.66664062,17 C6.66664062,16.080625 7.41460937,15.3333594 8.33328125,15.3333594 C9.25195312,15.3333594 9.99992187,16.0807031 9.99992187,17 L9.99992187,27.3333594 L10,27.3333594 Z" id="Shape"></path>
        <path d="M15.6666406,14 C14.0126563,14 12.6666406,15.3460156 12.6666406,17 L12.6666406,28 C12.6666406,28.3686719 12.9653125,28.6666406 13.3332813,28.6666406 L18,28.6666406 C18.3679688,28.6666406 18.6666406,28.3686719 18.6666406,28 L18.6666406,17 C18.6666406,15.3460156 17.3207031,14 15.6666406,14 Z M17.3333594,27.3333594 L14,27.3333594 L14,17 C14,16.080625 14.7479688,15.3333594 15.6666406,15.3333594 C16.5853125,15.3333594 17.3332813,16.0807031 17.3332813,17 L17.3332813,27.3333594 L17.3333594,27.3333594 Z" id="Shape"></path>
        <path d="M10.6666406,30 L6,30 C5.63203125,30 5.33335937,30.2979688 5.33335937,30.6666406 L5.33335937,36.6666406 C5.33335937,37.0353125 5.63203125,37.3332813 6,37.3332813 L10.6666406,37.3332813 C11.0346094,37.3332813 11.3332813,37.0353125 11.3332813,36.6666406 L11.3332813,30.6666406 C11.3333594,30.2979688 11.0346875,30 10.6666406,30 Z M10,36 L6.66664062,36 L6.66664062,31.3333594 L10,31.3333594 L10,36 Z" id="Shape"></path>
        <path d="M18,30 L13.3333594,30 C12.9653906,30 12.6667188,30.2979688 12.6667188,30.6666406 L12.6667188,36.6666406 C12.6667188,37.0353125 12.9653906,37.3332813 13.3333594,37.3332813 L18,37.3332813 C18.3679688,37.3332813 18.6666406,37.0353125 18.6666406,36.6666406 L18.6666406,30.6666406 C18.6666406,30.2979688 18.3679688,30 18,30 Z M17.3333594,36 L14,36 L14,31.3333594 L17.3333594,31.3333594 L17.3333594,36 L17.3333594,36 Z" id="Shape"></path>
        <path d="M12,2.66664062 C6.85335938,2.66664062 2.66664063,6.85328125 2.66664063,12 C2.66664063,12.3686719 2.9653125,12.6666406 3.33328125,12.6666406 L20.6666406,12.6666406 C21.0346094,12.6666406 21.3332813,12.3686719 21.3332813,12 C21.3332813,6.85335937 17.1466406,2.66664062 12,2.66664062 Z M4.02734375,11.3333594 C4.36734375,7.23335937 7.81335938,4 12,4 C16.1866406,4 19.6326563,7.23335937 19.9720313,11.3333594 L4.02734375,11.3333594 Z" id="Shape"></path>
        <path d="M12,2.66664062 C11.6320312,2.66664062 11.3333594,2.96460937 11.3333594,3.33328125 L11.3333594,12 C11.3333594,12.3686719 11.6320312,12.6666406 12,12.6666406 C12.3679687,12.6666406 12.6666406,12.3686719 12.6666406,12 L12.6666406,3.33335937 C12.6666406,2.9646875 12.3679687,2.66664062 12,2.66664062 Z" id="Path"></path>
        <path d="M18.4713281,5.52867187 C18.2113281,5.26796875 17.7886719,5.26796875 17.5286719,5.52867187 L11.5286719,11.5286719 C11.2679688,11.789375 11.2679688,12.2107031 11.5286719,12.4713281 C11.6586719,12.6013281 11.829375,12.6666406 12,12.6666406 C12.1707031,12.6666406 12.3413281,12.6013281 12.4713281,12.4713281 L18.4713281,6.47132812 C18.7320313,6.21070312 18.7320313,5.78929687 18.4713281,5.52867187 Z" id="Path"></path>
        <path d="M12.4713281,11.5286719 L6.47132813,5.52867187 C6.21132813,5.26796875 5.78867188,5.26796875 5.52867188,5.52867187 C5.26796875,5.78929687 5.26796875,6.21070312 5.52867188,6.47132812 L11.5286719,12.4713281 C11.6586719,12.6013281 11.829375,12.6666406 12,12.6666406 C12.1707031,12.6666406 12.3413281,12.6013281 12.4713281,12.4713281 C12.7320313,12.2107031 12.7320313,11.789375 12.4713281,11.5286719 Z" id="Path"></path>
        <path d="M13.3333594,33.3333594 L10.6667187,33.3333594 C10.29875,33.3333594 10.0000781,33.6313281 10.0000781,34 C10.0000781,34.3686719 10.29875,34.6666406 10.6667187,34.6666406 L13.3333594,34.6666406 C13.7013281,34.6666406 14,34.3686719 14,34 C14,33.6313281 13.7013281,33.3333594 13.3333594,33.3333594 Z" id="Path"></path>
      </g>
    </g>
  </g>
</svg>
