<svg width="16px" height="16px" viewBox="0 0 16 16" version="1.1" xmlns="http://www.w3.org/2000/svg" xmlns:xlink="http://www.w3.org/1999/xlink">
  <title>Icon / mode / list Copy</title>
  <g id="Page-1" stroke="none" stroke-width="1" fill="none" fill-rule="evenodd">
    <g id="0.0.0-Doors-Menu" transform="translate(-1400.000000, -162.000000)">
      <rect fill="#F7F7F7" x="0" y="0" width="1440" height="1024"></rect>
      <rect id="Rectangle" stroke-opacity="0.1" stroke="#45515D" fill="#FFFFFF" x="79.5" y="67.5" width="1361" height="957"></rect>
      <g id="Pods" transform="translate(213.000000, 96.000000)">
        <g id="Filter" transform="translate(60.000000, 0.000000)">
          <g id="Icon-/-mode-/-group" transform="translate(1123.000000, 62.000000)">
            <g id="menu">
              <rect id="Rectangle" x="0" y="0" width="24" height="24"></rect>
              <rect id="Rectangle" stroke="#45515D" stroke-width="2" stroke-linecap="round" x="5" y="5" width="5" height="5"></rect>
              <rect id="Rectangle-Copy" stroke="#45515D" stroke-width="2" stroke-linecap="round" x="14" y="5" width="5" height="5"></rect>
              <rect id="Rectangle-Copy-2" stroke="#45515D" stroke-width="2" stroke-linecap="round" x="5" y="14" width="5" height="5"></rect>
              <rect id="Rectangle-Copy-3" stroke="#45515D" stroke-width="2" stroke-linecap="round" x="14" y="14" width="5" height="5"></rect>
            </g>
          </g>
        </g>
      </g>
    </g>
  </g>
</svg>
