<svg width="24px" height="24px" viewBox="0 0 24 24" version="1.1" xmlns="http://www.w3.org/2000/svg" xmlns:xlink="http://www.w3.org/1999/xlink">
  <title>Notification</title>
  <g id="Symbols" stroke="none" stroke-width="1" fill="none" fill-rule="evenodd">
    <g id="Icon-/-Notification-/-grey-light">
      <g id="Notification">
        <rect id="Rectangle" x="0" y="0" width="24" height="24"></rect>
        <line x1="4.16666667" y1="19" x2="19.8333333" y2="19" id="Line-4" stroke="#B3BAC2" stroke-width="2" stroke-linecap="round"></line>
        <path d="M19,19 L19,11.5882353 C19,7.94965341 15.8659932,5 12,5 C8.13400675,5 5,7.94965341 5,11.5882353 L5,19" id="Path" stroke="#B3BAC2" stroke-width="2" stroke-linecap="round"></path>
        <path d="M13.8123051,5 C13.9327238,4.72897355 14,4.42649662 14,4.10746221 C14,2.94354297 13.1045695,2 12,2 C10.8954305,2 10,2.94354297 10,4.10746221 C10,4.42319396 10.0658905,4.72270926 10.1839723,4.99157286" id="Path" stroke="#B3BAC2" stroke-width="2" stroke-linecap="round"></path>
        <path d="M13.9380211,22 C13.9784886,21.8093745 14,21.2057746 14,21 C14,19.6723825 13.1045695,19 12,19 C10.8954305,19 10,19.6723825 10,21 C10,21.20083 10.0204901,21.7997721 10.0590946,21.9862426" id="Path-Copy-4" stroke="#B3BAC2" stroke-width="2" stroke-linecap="round" transform="translate(12.000000, 20.500000) rotate(-180.000000) translate(-12.000000, -20.500000) "></path>
      </g>
    </g>
  </g>
</svg>
