<svg width="44px" height="44px" viewBox="0 0 44 44" version="1.1" xmlns="http://www.w3.org/2000/svg" xmlns:xlink="http://www.w3.org/1999/xlink">
  <title>Oval</title>
  <defs>
    <filter id="filter-1">
      <feColorMatrix in="SourceGraphic" type="matrix" values="0 0 0 0 1.000000 0 0 0 0 1.000000 0 0 0 0 1.000000 0 0 0 1.000000 0"></feColorMatrix>
    </filter>
    <path d="M14,6 L14,21 L3,21 L3,19 L5,19 L5,3 L14,3 L14,4 L19,4 L19,19 L21,19 L21,21 L17,21 L17,6 L14,6 Z M10,11 L10,13 L12,13 L12,11 L10,11 Z" id="path-2"></path>
  </defs>
  <g id="Symbols" stroke="none" stroke-width="1" fill="none" fill-rule="evenodd">
    <g id="User-/-open">
      <circle id="Oval" fill="#0088CE" cx="22" cy="22" r="22"></circle>
      <g filter="url(#filter-1)" fill="#FFFFFF" id="Icon-/-door-/-Filled-">
        <g transform="translate(10.000000, 10.000000)">
          <mask id="mask-3" fill="white">
            <use xlink:href="#path-2"></use>
          </mask>
          <g id="Mask" fill="none" fill-rule="nonzero"></g>
          <g id="↳-Icon-Color" stroke-width="1" fill="none" mask="url(#mask-3)">
            <g id="↳-Tonal-Palette" fill="#949BA2">
              <g id="Rectangle-13">
                <rect x="0" y="0" width="24" height="24"></rect>
              </g>
            </g>
          </g>
        </g>
      </g>
    </g>
  </g>
</svg>
