<svg width="44px" height="44px" viewBox="0 0 44 44" version="1.1" xmlns="http://www.w3.org/2000/svg" xmlns:xlink="http://www.w3.org/1999/xlink">
  <title>Oval</title>
  <defs>
    <filter id="filter-1">
      <feColorMatrix in="SourceGraphic" type="matrix" values="0 0 0 0 1.000000 0 0 0 0 1.000000 0 0 0 0 1.000000 0 0 0 1.000000 0"></feColorMatrix>
    </filter>
  </defs>
  <g id="Symbols" stroke="none" stroke-width="1" fill="none" fill-rule="evenodd">
    <g id="User-/-Send">
      <circle id="Oval" fill="#0088CE" cx="22" cy="22" r="22"></circle>
      <g filter="url(#filter-1)" fill="#FFFFFF" id="Icon-/-share-/-email">
        <g transform="translate(10.000000, 10.000000)">
          <rect id="Rectangle" fill="none" x="0" y="0" width="24" height="24"></rect>
          <rect id="Rectangle" stroke="#45515D" stroke-width="2" fill="none" stroke-linecap="round" x="4" y="6" width="17" height="12"></rect>
          <polyline id="Line" stroke="#45515D" stroke-width="2" fill="none" stroke-linecap="round" points="4.5 6.53846154 12.5 13 21 6"></polyline>
        </g>
      </g>
    </g>
  </g>
</svg>
