<svg width="18px" height="18px" viewBox="0 0 18 18" version="1.1" xmlns="http://www.w3.org/2000/svg" xmlns:xlink="http://www.w3.org/1999/xlink">
  <title>Path 2</title>
  <g id="Symbols" stroke="none" stroke-width="1" fill="none" fill-rule="evenodd">
    <g id="Icon-/-edit" transform="translate(-3.000000, -3.000000)" fill="#45515D" fill-rule="nonzero">
      <path d="M14.2031685,6 L18,9.79681953 L6.79683154,21 L3,21 L3,17.2031805 L14.2031685,6 Z M16.8697187,3.29885057 C17.2681834,2.90038314 17.9169815,2.90038314 18.3154462,3.29885057 L18.3154462,3.29885057 L20.7011575,5.68453065 C21.0996221,6.08299808 21.0996221,6.73180077 20.7011096,7.1302682 L20.7011096,7.1302682 L18.8313909,9 L15,5.16858238 Z" id="Path-2"></path>
    </g>
  </g>
</svg>
