<svg width="20px" height="19px" viewBox="0 0 20 19" version="1.1" xmlns="http://www.w3.org/2000/svg" xmlns:xlink="http://www.w3.org/1999/xlink">
  <title>Star</title>
  <g id="Symbols" stroke="none" stroke-width="1" fill="none" fill-rule="evenodd">
    <g id="Icon-/-Favourite-/-filled" transform="translate(-2.000000, -2.000000)">
      <rect id="Rectangle" x="0" y="0" width="24" height="24"></rect>
      <polygon id="Star" fill="#B3BAC2" points="12 17 6.12214748 20.0901699 7.24471742 13.545085 2.48943484 8.90983006 9.06107374 7.95491503 12 2 14.9389263 7.95491503 21.5105652 8.90983006 16.7552826 13.545085 17.8778525 20.0901699"></polygon>
    </g>
  </g>
</svg>
